Name,Sex,Age,Division,Equipment,BodyweightKg,WeightClassKg,Squat1Kg,Squat2Kg,Squat3Kg,Best3SquatKg,Bench1Kg,Bench2Kg,Bench3Kg,Best3BenchKg,Deadlift1Kg,Deadlift2Kg,Deadlift3Kg,Best3DeadliftKg,TotalKg,Event,Place
Abu Choudhury,M,,M_O_R_BPU,Raw,70.1,75,,,,,140,145,-150,145,,,,,145,B,1
Adam Hayesmore,M,,M_O_R_BPU,Raw,79.5,82.5,172.5,185,190,190,105,112.5,115,115,182.5,-195,-205,182.5,487.5,SBD,3
Aisling Peberdy,F,,F_J_R_BPU,Raw,66.6,67.5,-75,75,85,85,55,-60,-60,55,120,130,140,140,280,SBD,2
Andrew Pearson,M,,M_O_R_BPU,Raw,106.1,110,220,230,235,235,160,-165,165,165,240,250,260,260,660,SBD,2
Artur Chrząszcz,M,,M_O_M_BPU,Multi-ply,123.3,125,380,-400,400,400,255,-265,-265,255,300,325,-345,325,980,SBD,1
Bradley Scott,M,,M_O_CR_BPU,Wraps,125.3,140,-207.5,207.5,-220,207.5,145,157.5,-170,157.5,245,260,-272.5,260,625,SBD,1
Cameron Couldwell,M,,M_J_R_BPU,Raw,99.5,100,-220,225,230,230,100,,,100,300,-312.5,-312.5,300,630,SBD,1
Clifford Richards,M,,M_O_R_BPU,Raw,82.5,82.5,-225,235,-245,235,180,190,-200,190,240,250,-260,250,675,SBD,1
Dan Brunt-Murphy,M,,M_J_CR_BPU,Wraps,99.5,100,-220,-220,220,220,-150,150,157.5,157.5,-225,-225,-225,,,SBD,DQ
Daniel Shearly,M,,M_O_R_BPU,Raw,74.6,75,160,-180,-180,160,125,135,-145,135,220,230,-245,230,525,SBD,1
Dave Ryglielski,M,,M_J_R_BPU,Raw,120.8,125,217.5,-227.5,-227.5,217.5,-152.5,-152.5,152.5,152.5,250,275,-300,275,645,SBD,1
David Jenkinson,M,,M_O_CR_BPU,Wraps,108.7,110,305,-322.5,,305,207.5,220,227.5,227.5,300,320,332.5,332.5,865,SBD,1
David Sloane,M,,M_O_R_BPU,Raw,96.6,100,185,200,210,210,130,135,140,140,210,230,250,250,600,SBD,2
Dwayne Taylor #1,M,,M_M2_CR_BPU,Wraps,121.3,125,-255,255,270,270,190,200,210,210,250,270,-280,270,750,SBD,1
Ed Cole,M,,M_T3_R_BPU,Raw,79.7,82.5,185,200,-205,200,110,117.5,-125,117.5,185,200,-215,200,517.5,SBD,1
Elizabeth Collins,F,,F_M2_R_BPU,Raw,51.7,52,65,70,75,75,32.5,35,-40,35,105,110,115,115,225,SBD,1
Emmy Louise,F,,F_O_R_BPU,Raw,55.9,56,110,112.5,120,120,70,80,-85,80,150,160,-167.5,160,360,SBD,1
Grant McEvansoneya,M,,M_O_R_BPU,Raw,109.4,110,240,260,-267.5,260,200,-210,-210,200,250,280,-290,280,740,SBD,1
Gregory Peck,M,,M_O_M_BPU,Multi-ply,87.6,90,,,,,200,215,-220,215,,,,,215,B,1
Harry Clemson,M,,M_T3_R_BPU,Raw,72.6,75,120,135,142.5,142.5,80,100,-105,100,170,185,200,200,442.5,SBD,1
Hassan Zaid,M,,M_O_M_BPU,Multi-ply,96.2,100,300,320,340,340,185,195,200,200,-290,300,320,320,860,SBD,1
Jack Hillman,M,,M_O_CR_BPU,Wraps,115.6,125,-220,-220,220,220,140,-155,-155,140,240,255,-260,255,615,SBD,2
James Chapman #3,M,,M_O_R_BPU,Raw,81.8,82.5,200,215,222.5,222.5,140,152.5,157.5,157.5,200,212.5,217.5,217.5,597.5,SBD,2
James Gilbert #1,M,,M_O_CR_BPU,Wraps,116.5,125,240,255,270,270,175,187.5,-192.5,187.5,280,300,-310,300,757.5,SBD,1
Jo Wood #2,F,,F_M2_R_BPU,Raw,59.9,60,50,-60,-65,50,40,45,-50,45,100,110,-120,110,205,SBD,1
John Lofthouse,M,,M_O_CR_BPU,Wraps,98.9,100,190,-210,-210,190,130,140,-145,140,240,260,-270,260,590,SBD,1
John Parnham,M,,M_O_R_BPU,Raw,88.8,90,155,167.5,180,180,100,-110,-110,100,195,210,220,220,500,SBD,3
Kamil Pawelec,M,,M_O_M_BPU,Multi-ply,96.7,100,225,-240,-240,225,165,175,-180,175,230,250,-265,250,650,SBD,1
Kurt McEvansoneya,M,,M_J_R_BPU,Raw,108.9,110,180,200,,200,140,-150,-150,140,240,260,,260,600,SBD,1
Leslie Watson,F,,F_O_R_BPU,Raw,46.7,48,40,-45,45,45,60,62.5,-65,62.5,75,80,82.5,82.5,190,SBD,1
Liam Salmon,M,,M_O_R_BPU,Raw,87.5,90,200,227.5,-232.5,227.5,130,140,-150,140,250,272.5,,272.5,640,SBD,1
Mark Cooney,M,,M_O_M_BPU,Multi-ply,88,90,-245,-245,-245,,-170,170,-180,170,,,,,,SBD,DQ
Michael Brown #13,M,,M_M2_CR_BPU,Wraps,107.8,110,200,225,-235,225,130,140,-150,140,-230,,,,,SBD,DQ
Mitch Ravenscroft,M,,M_O_R_BPU,Raw,88.1,90,-170,170,,170,160,170,,170,-200,200,,200,540,SBD,2
Nicky Price,F,,F_J_R_BPU,Raw,65.6,67.5,140,155,-170,155,80,-90,-90,80,170,-200,-200,170,405,SBD,1
Precious Collins,F,,F_O_R_BPU,Raw,75,75,130,-137.5,137.5,137.5,72.5,77.5,-82.5,77.5,145,157.5,-162.5,157.5,372.5,SBD,1
Ricky James,M,,M_O_R_BPU,Raw,74.3,75,,,,,,,,,215,230,250,250,250,D,1
Rob Maguire,M,,M_O_R_BPU,Raw,96.2,100,-205,210,-220,210,-162.5,162.5,-172.5,162.5,200,230,,230,602.5,SBD,1
Robert McClelland,M,,M_O_R_BPU,Raw,146.3,140+,160,-180,190,190,160,-170,-180,160,-220,220,-230,220,570,SBD,1
Scott Russell #1,M,,M_O_R_BPU,Raw,118.8,125,,,,,165,175,-180,175,,,,,175,B,2
Sonia Keogh,F,,F_M4_R_BPU,Raw,,,,,,,,,,,,,,,,SBD,NS
Tracey Dawson,F,,F_M1_R_BPU,Raw,78.1,82.5,-65,-70,-70,,42.5,-45,-45,42.5,100,110,-120,110,,SBD,DQ
Vasilij Petrov,M,,M_O_R_BPU,Raw,113.5,125,,,,,190,-195,195,195,,,,,195,B,1
Victoria Williams,F,,F_O_R_BPU,Raw,68.5,75,95,105,110,110,-65,-70,-70,,,,,,,SBD,DQ
