Division,WeightClassKg,Place,Name,Team,BodyweightKg,Best3SquatKg,Best3BenchKg,Best3DeadliftKg,TotalKg,Equipment,Event,Sex
Boys,51.71,1,Tyler Marcel,Conroe Oak Ridge,50.8,95.25,70.31,113.4,278.96,Single-ply,SBD,M
Boys,51.71,2,Robert Banks,Houston Chavez,51.71,102.06,61.23,113.4,276.69,Single-ply,SBD,M
Boys,51.71,3,Alfred Aparicio,Palacios,50.35,86.18,56.7,106.59,249.48,Single-ply,SBD,M
Boys,51.71,DQ,Marcus Davis,Houston Washington,51.71,,,,,Single-ply,SBD,M
Boys,55.79,1,Andrew Brooks,Houston Madison,55.79,185.97,95.25,188.24,469.47,Single-ply,SBD,M
Boys,55.79,2,Kenny Nguyen,Dickinson,52.62,161.03,102.06,142.88,405.97,Single-ply,SBD,M
Boys,55.79,3,Anthony Grimes,Katy Mayde Creek,55.34,129.27,83.91,158.76,371.95,Single-ply,SBD,M
Boys,55.79,4,Fidencio Cruz,Dickinson,55.34,149.69,68.04,151.95,369.68,Single-ply,SBD,M
Boys,55.79,5,Michael Latapie,Palacios,54.43,127.01,95.25,136.08,358.34,Single-ply,SBD,M
Boys,55.79,6,Chaise Edwards,Montgomery,54.88,136.08,74.84,127.01,337.93,Single-ply,SBD,M
Boys,55.79,7,Jasson Hernandez,Houston Chavez,55.79,106.59,83.91,136.08,326.59,Single-ply,SBD,M
Boys,55.79,8,Marco Zamora,Palacios,54.43,72.57,49.9,102.06,224.53,Single-ply,SBD,M
Boys,59.87,1,Austin Alexander,Conroe Caney Creek,59.87,165.56,88.45,154.22,408.23,Single-ply,SBD,M
Boys,59.87,2,Quentin Dodds,Dickinson,58.51,167.83,79.38,158.76,405.97,Single-ply,SBD,M
Boys,59.87,3,Jacob Simpson,Houston Bellaire,58.06,136.08,97.52,136.08,369.68,Single-ply,SBD,M
Boys,59.87,4,Bryce Walker,Houston Madison,57.15,145.15,68.04,151.95,365.14,Single-ply,SBD,M
Boys,59.87,5,Stephen MaChatha,Montgomery,58.06,111.13,83.91,129.27,324.32,Single-ply,SBD,M
Boys,59.87,6,Brian Frank,Houston Madison,56.7,113.4,74.84,131.54,319.78,Single-ply,SBD,M
Boys,59.87,7,Lane Sellers,Magnolia,58.51,120.2,65.77,133.81,319.78,Single-ply,SBD,M
Boys,59.87,8,Jared Akagi,Magnolia,58.51,102.06,61.23,120.2,283.5,Single-ply,SBD,M
Boys,59.87,DQ,Gerardo Nunez,Houston Milby,59.87,,,,,Single-ply,SBD,M
Boys,59.87,DQ,Oscar Abrego,Houston Chavez,59.87,,,,,Single-ply,SBD,M
Boys,67.13,1,Kevin Green,Katy Mayde Creek,67.13,195.04,106.59,195.04,496.68,Single-ply,SBD,M
Boys,67.13,2,Jared Wetuski,Montgomery,62.6,195.04,106.59,181.44,483.08,Single-ply,SBD,M
Boys,67.13,3,Jesse Trevino,Houston Chavez,67.13,185.97,104.33,185.97,476.27,Single-ply,SBD,M
Boys,67.13,4,Jose Jimenez #11,Palacios,63.96,142.88,102.06,172.37,417.3,Single-ply,SBD,M
Boys,67.13,5,Juan Nunez,Katy Mayde Creek,66.68,149.69,79.38,181.44,410.5,Single-ply,SBD,M
Boys,67.13,6,Brandon Jenkins,Houston Chavez,67.13,158.76,88.45,158.76,405.97,Single-ply,SBD,M
Boys,67.13,7,Dorian Taylor,Houston Madison,63.5,147.42,92.99,154.22,394.63,Single-ply,SBD,M
Boys,67.13,8,Jordan Akagi,Magnolia,62.6,138.35,97.52,147.42,383.29,Single-ply,SBD,M
Boys,67.13,9,Noah Seaman,Palacios,67.13,117.93,70.31,138.35,326.59,Single-ply,SBD,M
Boys,67.13,10,Thomas Bruhn,Houston Waltrip,60.33,117.93,70.31,136.08,324.32,Single-ply,SBD,M
Boys,67.13,11,Nick Garcia #7,Palacios,61.23,99.79,70.31,131.54,301.64,Single-ply,SBD,M
Boys,67.13,12,Christian Egans,Crosby,64.41,97.52,77.11,124.74,299.37,Single-ply,SBD,M
Boys,67.13,13,Carlos Ramirez,Houston Milby,67.13,74.84,61.23,142.88,278.96,Single-ply,SBD,M
Boys,67.13,14,Josh Berger,Conroe Caney Creek,62.6,74.84,58.97,95.25,229.06,Single-ply,SBD,M
Boys,67.13,DQ,Todd Chapin,Conroe Caney Creek,60.78,102.06,,,,Single-ply,SBD,M
Boys,67.13,DQ,Eric White,Houston Milby,67.13,102.06,,,,Single-ply,SBD,M
Boys,67.13,DQ,Lz Shaw,Houston Washington,67.13,106.59,,,,Single-ply,SBD,M
Boys,74.84,1,Victor Tran,Dickinson,73.94,208.65,117.93,181.44,508.02,Single-ply,SBD,M
Boys,74.84,2,Josh Salas,Katy Mayde Creek,72.57,190.51,97.52,201.85,489.88,Single-ply,SBD,M
Boys,74.84,3,Johnathon Bradfield,Katy Mayde Creek,74.84,172.37,129.27,188.24,489.88,Single-ply,SBD,M
Boys,74.84,4,Jessie Hooper,Montgomery,74.84,190.51,115.67,181.44,487.61,Single-ply,SBD,M
Boys,74.84,5,Matthew Nguyen,Palacios,73.48,176.9,95.25,204.12,476.27,Single-ply,SBD,M
Boys,74.84,6,Jamall Candley,Conroe Oak Ridge,73.94,170.1,102.06,181.44,453.59,Single-ply,SBD,M
Boys,74.84,7,Winston Pullin,Pasadena Memorial,69.4,158.76,95.25,181.44,435.45,Single-ply,SBD,M
Boys,74.84,8,Daniel Adams,Houston Waltrip,70.76,151.95,97.52,167.83,417.3,Single-ply,SBD,M
Boys,74.84,9,Michael Aleksisk,Conroe Caney Creek,74.84,149.69,102.06,151.95,403.7,Single-ply,SBD,M
Boys,74.84,10,Colby Kitterman,Conroe Oak Ridge,73.94,158.76,92.99,145.15,396.89,Single-ply,SBD,M
Boys,74.84,11,George Sanders,Houston Chavez,74.84,147.42,92.99,147.42,387.82,Single-ply,SBD,M
Boys,74.84,12,Huy Tu,Pasadena Memorial,68.95,131.54,83.91,170.1,385.55,Single-ply,SBD,M
Boys,74.84,13,Chris Driver,Houston Milby,72.12,120.2,102.06,158.76,381.02,Single-ply,SBD,M
Boys,74.84,14,Lawrence Putman,Houston Milby,70.76,124.74,83.91,158.76,367.41,Single-ply,SBD,M
Boys,74.84,15,Cameron Rhodman,Beaumont Ozen,71.21,142.88,72.57,149.69,365.14,Single-ply,SBD,M
Boys,74.84,16,Jacob Ruiz,Houston Milby,68.49,124.74,83.91,136.08,344.73,Single-ply,SBD,M
Boys,74.84,17,Andrew Cantu,Houston Milby,72.57,122.47,79.38,142.88,344.73,Single-ply,SBD,M
Boys,74.84,18,Austin Glenn,Conroe Oak Ridge,68.04,113.4,86.18,142.88,342.46,Single-ply,SBD,M
Boys,74.84,19,Dwight Tucker,Pasadena Dobie,69.4,108.86,88.45,122.47,319.78,Single-ply,SBD,M
Boys,74.84,20,Eric Ramirez,Houston Washington,74.84,104.33,65.77,136.08,306.17,Single-ply,SBD,M
Boys,74.84,DQ,Ashton Glenn #1,Conroe Oak Ridge,72.12,115.67,88.45,142.88,,Single-ply,SBD,M
Boys,74.84,DQ,James Corn,Conroe Oak Ridge,68.95,136.08,,,,Single-ply,SBD,M
Boys,74.84,DQ,Christo Sanchez,Houston Milby,72.12,90.72,,,,Single-ply,SBD,M
Boys,74.84,DQ,Jonathan Reyes,Houston Milby,68.95,142.88,,,,Single-ply,SBD,M
Boys,82.1,1,Justin Eberly,Conroe Caney Creek,80.74,215.46,124.74,231.33,571.53,Single-ply,SBD,M
Boys,82.1,2,Eric Washington,Montgomery,78.02,210.92,113.4,226.8,551.11,Single-ply,SBD,M
Boys,82.1,3,John Le,Dickinson,78.47,226.8,117.93,204.12,548.85,Single-ply,SBD,M
Boys,82.1,4,Christian Andrews,Beaumont Ozen,76.2,204.12,129.27,204.12,537.51,Single-ply,SBD,M
Boys,82.1,5,Joe Cantu,Conroe Oak Ridge,82.1,197.31,122.47,204.12,523.9,Single-ply,SBD,M
Boys,82.1,6,Jamarcus Burks,Houston Madison,81.65,206.38,113.4,197.31,517.1,Single-ply,SBD,M
Boys,82.1,7,Ronald Winston,Katy Mayde Creek,77.11,183.7,113.4,204.12,501.22,Single-ply,SBD,M
Boys,82.1,8,Shyerome Harris,Magnolia,80.29,188.24,111.13,195.04,494.42,Single-ply,SBD,M
Boys,82.1,9,Mark McKown,Magnolia,76.2,185.97,115.67,183.7,485.34,Single-ply,SBD,M
Boys,82.1,10,Greg Sexton,Palacios,79.38,172.37,104.33,204.12,480.81,Single-ply,SBD,M
Boys,82.1,11,Brandon Gomez,Dickinson,80.74,192.78,97.52,183.7,474,Single-ply,SBD,M
Boys,82.1,12,George Stephenson,Conroe Oak Ridge,80.74,172.37,92.99,199.58,464.93,Single-ply,SBD,M
Boys,82.1,13,Chris Moreno,Pasadena Memorial,79.38,145.15,115.67,163.29,424.11,Single-ply,SBD,M
Boys,82.1,14,Kyle Leal,Crosby,79.83,142.88,102.06,174.63,419.57,Single-ply,SBD,M
Boys,82.1,15,Michael Kirby,Montgomery,78.93,136.08,106.59,167.83,410.5,Single-ply,SBD,M
Boys,82.1,16,Tyler Grilliott,Conroe Caney Creek,76.2,151.95,81.65,149.69,383.29,Single-ply,SBD,M
Boys,82.1,17,Barry Authenreith,Pasadena Dobie,77.56,129.27,74.84,174.63,378.75,Single-ply,SBD,M
Boys,82.1,18,Arron Lemelle,Beaumont Ozen,78.47,113.4,90.72,170.1,374.21,Single-ply,SBD,M
Boys,82.1,19,Demarqus Lastrappe,Conroe Oak Ridge,81.65,131.54,83.91,154.22,369.68,Single-ply,SBD,M
Boys,82.1,20,David SanMiguel,Pasadena Memorial,82.1,122.47,83.91,124.74,331.12,Single-ply,SBD,M
Boys,82.1,21,Justin Watts,Beaumont Ozen,78.47,124.74,77.11,124.74,326.59,Single-ply,SBD,M
Boys,82.1,22,Jarvis Grant,Beaumont Ozen,79.83,104.33,65.77,117.93,288.03,Single-ply,SBD,M
Boys,82.1,DQ,Joe Jack,Crosby,82.1,,,,,Single-ply,SBD,M
Boys,82.1,DQ,Nico Bush,Houston Washington,82.1,,,,,Single-ply,SBD,M
Boys,82.1,DQ,Demontre Wiggins,Stafford,82.1,,,,,Single-ply,SBD,M
Boys,82.1,DQ,Ahrmon McLead,Pasadena Memorial,82.1,,,,,Single-ply,SBD,M
Boys,82.1,DQ,Bryan Griffith,Conroe Caney Creek,81.65,172.37,,,,Single-ply,SBD,M
Boys,89.81,1,Jordan Glenn,Houston Bellaire,86.64,249.48,156.49,260.82,666.78,Single-ply,SBD,M
Boys,89.81,2,Byron Wells,Dickinson,86.18,238.14,136.08,244.94,619.15,Single-ply,SBD,M
Boys,89.81,3,Anthony Breed,Beaumont Ozen,88.9,183.7,131.54,215.46,530.7,Single-ply,SBD,M
Boys,89.81,4,Derrick Thompson,Houston Chavez,89.81,204.12,120.2,206.38,530.7,Single-ply,SBD,M
Boys,89.81,5,Patrick Strong,Magnolia,83.01,183.7,133.81,181.44,498.95,Single-ply,SBD,M
Boys,89.81,6,Zach Gunn,Pasadena Memorial,88.45,172.37,108.86,195.04,476.27,Single-ply,SBD,M
Boys,89.81,7,Cody Wallace,Magnolia,83.01,170.1,124.74,179.17,474,Single-ply,SBD,M
Boys,89.81,8,Keyon Martin,Beaumont Ozen,85.28,149.69,115.67,176.9,442.25,Single-ply,SBD,M
Boys,89.81,9,Daniel Arias,Houston Madison,88.9,142.88,90.72,172.37,405.97,Single-ply,SBD,M
Boys,89.81,10,Juan Lopez,Palacios,87.09,127.01,92.99,176.9,396.89,Single-ply,SBD,M
Boys,89.81,11,Adrian Ruiz,Houston Bellaire,87.09,142.88,88.45,161.03,392.36,Single-ply,SBD,M
Boys,89.81,12,Chase Nix,Crosby,83.46,133.81,92.99,158.76,385.55,Single-ply,SBD,M
Boys,89.81,13,Lyndell Robinson,Houston Washington,89.81,102.06,102.06,156.49,360.61,Single-ply,SBD,M
Boys,89.81,DQ,Michael Chevalier,Houston Waltrip,86.18,,,,,Single-ply,SBD,M
Boys,89.81,DQ,Justin Duhon,Crosby,89.81,,,,,Single-ply,SBD,M
Boys,89.81,DQ,Louis Johnson,Beaumont Ozen,84.37,124.74,,,,Single-ply,SBD,M
Boys,89.81,DQ,Justin Wilkinson,Conroe Caney Creek,86.64,151.95,,,,Single-ply,SBD,M
Boys,89.81,DQ,John Medin,Houston Waltrip,88.9,183.7,113.4,,,Single-ply,SBD,M
Boys,99.79,1,Alejandro Palana,Katy Mayde Creek,99.34,226.8,106.59,192.78,526.17,Single-ply,SBD,M
Boys,99.79,2,Matt McGlone,Magnolia,94.35,183.7,165.56,174.63,523.9,Single-ply,SBD,M
Boys,99.79,3,Darrian Lavergne,Pasadena Dobie,98.88,188.24,115.67,201.85,505.76,Single-ply,SBD,M
Boys,99.79,4,Dominic Merka,Crosby,99.79,165.56,122.47,210.92,498.95,Single-ply,SBD,M
Boys,99.79,5,Walter Galvez,Houston Bellaire,94.8,188.24,113.4,195.04,496.68,Single-ply,SBD,M
Boys,99.79,6,Doug Holder,Pasadena Memorial,93.44,174.63,115.67,204.12,494.42,Single-ply,SBD,M
Boys,99.79,7,Steve Lopez,Houston Chavez,99.79,172.37,106.59,172.37,451.32,Single-ply,SBD,M
Boys,99.79,8,Adrian White,Crosby,96.62,154.22,108.86,165.56,428.64,Single-ply,SBD,M
Boys,99.79,9,Gustavo Grimaldo,Pasadena Memorial,91.63,154.22,102.06,165.56,421.84,Single-ply,SBD,M
Boys,99.79,10,Xavier Woodard,Stafford,90.72,151.95,120.2,142.88,415.04,Single-ply,SBD,M
Boys,99.79,11,Francisco Ochoa,Houston Milby,98.88,149.69,102.06,158.76,410.5,Single-ply,SBD,M
Boys,99.79,12,Jacob Reynoso,Pasadena Dobie,92.99,142.88,95.25,161.03,399.16,Single-ply,SBD,M
Boys,99.79,13,Rudy Lasaint,Beaumont Ozen,97.07,136.08,102.06,136.08,374.21,Single-ply,SBD,M
Boys,99.79,14,Matthew Ballard,Houston Waltrip,97.52,142.88,102.06,124.74,369.68,Single-ply,SBD,M
Boys,99.79,DQ,Luke Melendez,Pasadena Memorial,99.79,,,,,Single-ply,SBD,M
Boys,99.79,DQ,Henderson Watlins,Montgomery,99.79,,,,,Single-ply,SBD,M
Boys,99.79,DQ,Demarcus Hadnot,Beaumont Ozen,95.71,,,,,Single-ply,SBD,M
Boys,109.77,1,Justin Rice,Pasadena Dobie,104.78,244.94,133.81,254.01,632.76,Single-ply,SBD,M
Boys,109.77,2,Roderick Wiltz,Houston Madison,107.05,240.4,151.95,238.14,630.49,Single-ply,SBD,M
Boys,109.77,3,Adam Aucoin,Palacios,102.97,249.48,147.42,226.8,623.69,Single-ply,SBD,M
Boys,109.77,4,Lorenzo Castaneda,Dickinson,108.41,226.8,124.74,233.6,585.13,Single-ply,SBD,M
Boys,109.77,5,Nick Simpson,Houston Madison,106.59,204.12,124.74,240.4,569.26,Single-ply,SBD,M
Boys,109.77,6,Seve Ramirez,Montgomery,106.59,215.46,142.88,204.12,562.45,Single-ply,SBD,M
Boys,109.77,7,Clay Boyd,Montgomery,105.23,192.78,136.08,217.72,546.58,Single-ply,SBD,M
Boys,109.77,8,Justin Latanero,Conroe Oak Ridge,103.87,208.65,124.74,195.04,528.44,Single-ply,SBD,M
Boys,109.77,9,Michael Garcia,Palacios,107.5,197.31,127.01,204.12,528.44,Single-ply,SBD,M
Boys,109.77,10,Tang Nguyen,Montgomery,100.7,208.65,117.93,199.58,526.17,Single-ply,SBD,M
Boys,109.77,11,Perry Jacob,Conroe Caney Creek,102.97,174.63,104.33,188.24,467.2,Single-ply,SBD,M
Boys,109.77,12,Pablo Granados,Houston Waltrip,109.32,181.44,102.06,181.44,464.93,Single-ply,SBD,M
Boys,109.77,13,Mark Moreno,Pasadena Memorial,100.7,172.37,127.01,163.29,462.66,Single-ply,SBD,M
Boys,109.77,14,Ismail Hassan,Katy Mayde Creek,107.05,165.56,106.59,167.83,439.98,Single-ply,SBD,M
Boys,109.77,15,Tristian Francis,Houston Washington,109.77,142.88,102.06,188.24,433.18,Single-ply,SBD,M
Boys,109.77,16,Nathan Bang,Crosby,108.41,147.42,97.52,181.44,426.38,Single-ply,SBD,M
Boys,109.77,17,Nestor Gonzalez,Houston Milby,105.69,102.06,102.06,181.44,385.55,Single-ply,SBD,M
Boys,109.77,DQ,Justin Walker,Crosby,109.77,,,,,Single-ply,SBD,M
Boys,109.77,DQ,James Fluellen,Conroe Oak Ridge,103.42,183.7,102.06,183.7,,Single-ply,SBD,M
Boys,109.77,DQ,Jeffrey Tauras,Conroe Oak Ridge,102.06,145.15,95.25,149.69,,Single-ply,SBD,M
Boys,109.77,DQ,Roitmany Van,Stafford,109.77,,,,,Single-ply,SBD,M
Boys,109.77,DQ,Tye Chalker,Conroe Oak Ridge,103.87,163.29,,,,Single-ply,SBD,M
Boys,109.77,DQ,Anthony Presutti,Conroe Oak Ridge,107.5,,,,,Single-ply,SBD,M
Boys,109.77,DQ,Aaron Hobbs,Dickinson,100.24,192.78,106.59,,,Single-ply,SBD,M
Boys,109.77,DQ,Cameron Hodge,Katy Mayde Creek,102.06,,,,,Single-ply,SBD,M
Boys,124.74,1,Nick Alvarez,Montgomery,120.66,272.16,190.51,233.6,696.26,Single-ply,SBD,M
Boys,124.74,2,Glenn Salisbury,Conroe Caney Creek,122.02,249.48,188.24,226.8,664.51,Single-ply,SBD,M
Boys,124.74,3,Paul Brown,Conroe Oak Ridge,110.22,238.14,136.08,231.33,605.55,Single-ply,SBD,M
Boys,124.74,4,Hayden Hasenbein,Conroe Oak Ridge,117.48,235.87,120.2,213.19,569.26,Single-ply,SBD,M
Boys,124.74,5,Ambrose Paige,Houston Bellaire,113.85,226.8,149.69,183.7,560.19,Single-ply,SBD,M
Boys,124.74,6,Malcolm Glover,Pasadena Dobie,120.66,170.1,147.42,213.19,530.7,Single-ply,SBD,M
Boys,124.74,7,Marcos Torres,Katy Mayde Creek,114.76,215.46,117.93,192.78,526.17,Single-ply,SBD,M
Boys,124.74,8,Caleb Clark,Crosby,121.11,188.24,111.13,215.46,514.83,Single-ply,SBD,M
Boys,124.74,9,Luis Blanco,Pasadena Dobie,113.85,172.37,115.67,197.31,485.34,Single-ply,SBD,M
Boys,124.74,10,Jose Reyes,Stafford,124.74,165.56,120.2,165.56,451.32,Single-ply,SBD,M
Boys,124.74,DQ,Adley Lai,Stafford,124.74,,,,,Single-ply,SBD,M
Boys,124.74,DQ,Carlos Gomez,Crosby,124.74,,,,,Single-ply,SBD,M
Boys,124.74,DQ,Christian Reyes,Katy Mayde Creek,124.74,,,,,Single-ply,SBD,M
Boys,124.74,DQ,Chris Rose,Houston Madison,123.38,244.94,,,,Single-ply,SBD,M
Boys,124.74,DQ,Josh Basquez,Pasadena Dobie,114.76,181.44,,,,Single-ply,SBD,M
Boys,124.74+,1,Cody Britton,Conroe Caney Creek,145.15,272.16,151.95,213.19,637.3,Single-ply,SBD,M
Boys,124.74+,2,Charles Phillips,Houston Madison,142.43,249.48,190.51,195.04,635.03,Single-ply,SBD,M
Boys,124.74+,3,Tim Jenkins,Dickinson,131.09,258.55,127.01,215.46,601.01,Single-ply,SBD,M
Boys,124.74+,4,Michael Abrams,Houston Bellaire,135.62,226.8,129.27,204.12,560.19,Single-ply,SBD,M
Boys,124.74+,5,Byron Williams,Dickinson,138.8,204.12,117.93,235.87,557.92,Single-ply,SBD,M
Boys,124.74+,6,Larry Reed #2,Magnolia,130.63,226.8,142.88,165.56,535.24,Single-ply,SBD,M
Boys,124.74+,7,Thalan Payne,Beaumont Ozen,125.19,158.76,122.47,204.12,485.34,Single-ply,SBD,M
Boys,124.74+,8,Thomas Payne,Beaumont Ozen,125.65,176.9,108.86,185.97,471.74,Single-ply,SBD,M
Boys,124.74+,9,Jessie Blackmon,Houston Bellaire,137.89,172.37,113.4,172.37,458.13,Single-ply,SBD,M
Boys,124.74+,10,Aaron Harris,Houston Bellaire,128.37,154.22,111.13,176.9,442.25,Single-ply,SBD,M
Boys,124.74+,11,Terrance Henry,Houston Chavez,125.19,142.88,83.91,165.56,392.36,Single-ply,SBD,M
Boys,124.74+,DQ,Clevland Sims,Houston Madison,134.72,,,,,Single-ply,SBD,M
Boys,124.74+,DQ,Kevin Arcizo,Houston Milby,125.65,142.88,,,,Single-ply,SBD,M
