Name,Sex,Age,Division,Tested,Equipment,BodyweightKg,WeightClassKg,Squat1Kg,Squat2Kg,Squat3Kg,Best3SquatKg,Bench1Kg,Bench2Kg,Bench3Kg,Best3BenchKg,Deadlift1Kg,Deadlift2Kg,Deadlift3Kg,Best3DeadliftKg,TotalKg,Event,Place
Aaron Fillery,M,,M_O_CR_BPU,,Wraps,96.5,100,200,205,-210,205,150,-155,-155,150,250,255,260,260,615,SBD,2
Adam Hawkins #2,M,,M_O_R_BPU,,Raw,133.4,140,,,,,,,,,250,270,280,280,280,D,1
Adam Hawkins #2,M,,M_O_R_BPU,,Raw,133.4,140,180,200,220,220,170,185,-195,185,250,270,280,280,685,SBD,1
Aimee Rutherford,F,,F_O_R_ABPU,Yes,Raw,61,67.5,,,,,,,,,120,127.5,140,140,140,D,1
Alan Motyer-Lowndes,M,,M_M2_R_ABPU,Yes,Raw,81.2,82.5,,,,,75,85,-90,85,,,,,85,B,1
Alan Motyer-Lowndes,M,,M_M2_R_ABPU,Yes,Raw,81.2,82.5,,,,,,,,,150,165,-180,165,165,D,1
Alan Motyer-Lowndes,M,,M_M2_R_ABPU,Yes,Raw,81.2,82.5,-130,-130,-130,,,,,,,,,,,SBD,DQ
Alan Wilson,M,,M_O_R_BPU,,Raw,90,90,190,205,-215,205,-132.5,-135,-135,,,,,,,SBD,DQ
Allison Hough,F,,F_M2_M_ABPU,Yes,Multi-ply,59.9,60,115,130,140,140,82.5,87.5,92.5,92.5,115,130,140,140,372.5,SBD,1
Amanda Cunliffe,F,,F_M2_R_ABPU,Yes,Raw,51.8,52,67.5,-72.5,-72.5,67.5,37.5,-42.5,42.5,42.5,95,105,112.5,112.5,222.5,SBD,1
Amanda Hillary,F,,F_O_R_ABPU,Yes,Raw,58.9,60,80,90,-100,90,37.5,40,42.5,42.5,90,100,110,110,242.5,SBD,1
Amelia Crook,F,,F_J_R_BPU,,Raw,64,67.5,107.5,115,122.5,122.5,60,65,-70,65,135,145,150,150,337.5,SBD,1
Ammar Abdul Hadi,M,,M_T2_R_ABPU,Yes,Raw,,67.5,120,140,150,150,90,100,-110,100,170,-200,-200,170,420,SBD,1
Andrew Gregory #1,M,,M_J_R_ABPU,Yes,Raw,74.7,75,100,110,120,120,80,90,97.5,97.5,160,170,180,180,397.5,SBD,1
Angela Harrison,F,,F_J_CR_BPU,,Wraps,59.2,60,90,-102.5,102.5,102.5,62.5,67.5,-70,67.5,125,132.5,-137.5,132.5,302.5,SBD,1
Brooke Hill,F,,F_T2_R_ABPU,Yes,Raw,58.4,60,75,80,-90,80,35,40,-47.5,40,80,95,105,105,225,SBD,2
Dana Smith #1,F,,F_T2_R_ABPU,Yes,Raw,59.4,60,70,80,90,90,45,50,55,55,90,-100,105,105,250,SBD,1
Daniel Cheetham,M,,M_T2_R_ABPU,Yes,Raw,82,82.5,160,-170,175,175,110,-122.5,-122.5,110,220,235,-245,235,520,SBD,1
Daniel Coote,M,,M_J_R_BPU,,Raw,72.8,75,140,150,157.5,157.5,102.5,110,112.5,112.5,205,217.5,227.5,227.5,497.5,SBD,1
Daniel Gildersleeve,M,,M_O_R_ABPU,Yes,Raw,71.6,75,140,147.5,155,155,102.5,-107.5,107.5,107.5,175,-182.5,182.5,182.5,445,SBD,1
Douglas Lisle,M,,M_O_R_ABPU,Yes,Raw,82,82.5,-170,170,-180,170,125,135,142.5,142.5,207.5,-240,,207.5,520,SBD,2
Geni Devonish,F,,F_M1_R_ABPU,Yes,Raw,87.6,90,,,,,55,60,-62.5,60,,,,,60,B,1
Geni Devonish,F,,F_M1_R_ABPU,Yes,Raw,87.6,90,,,,,,,,,110,125,127.5,127.5,127.5,D,1
Geni Devonish,F,,F_M1_R_ABPU,Yes,Raw,87.6,90,-95,100,112.5,112.5,55,60,-62.5,60,110,125,127.5,127.5,300,SBD,1
Iwona Karwowska,F,,F_O_R_ABPU,Yes,Raw,87,90,110,130,140,140,65,72.5,-75,72.5,120,140,-160,140,352.5,SBD,1
Jack Bishop,M,,M_T1_R_ABPU,Yes,Raw,81.5,82.5,80,-90,100,100,55,60,-65,60,150,155,160,160,320,SBD,1
John Warburton,M,,M_O_R_ABPU,Yes,Raw,82,82.5,170,185,200,200,110,115,120,120,210,,,210,530,SBD,1
Jordan Farrington,M,,M_T2_R_ABPU,Yes,Raw,84.6,90,160,170,185,185,120,130,135,135,180,200,217.5,217.5,537.5,SBD,1
Karla Frater,F,,F_M3_R_ABPU,Yes,Raw,81.3,82.5,80,90,100,100,30,35,40,40,130,140,-150,140,280,SBD,1
Les Attewell,M,,M_M2_R_BPU,,Raw,89.4,90,180,-190,200,200,130,140,,140,250,260,,260,600,SBD,1
Leslie Watson,F,,F_O_CR_ABPU,Yes,Wraps,47.1,48,45,50,-55,50,57.5,60,-62.5,60,75,82.5,-87.5,82.5,192.5,SBD,1
Lisa Bulcock,F,,F_O_R_BPU,,Raw,76.4,82.5,112.5,120,125,125,65,72.5,-75,72.5,132.5,140,145,145,342.5,SBD,1
Martin Brown #1,M,,M_O_CR_BPU,,Wraps,108,110,275,315,332.5,332.5,170,190,-195,190,275,300,-317.5,300,822.5,SBD,1
Matt Beenham,M,,M_O_CR_BPU,,Wraps,87.5,90,172.5,185,-192.5,185,115,120,122.5,122.5,185,200,-212.5,200,507.5,SBD,1
Matthew Edgar,M,,M_J_R_BPU,,Raw,109.8,110,260,280,292.5,292.5,187.5,-200,,187.5,120,,,120,600,SBD,1
Matthew Nicholson #1,M,,M_O_R_ABPU,Yes,Raw,89.3,90,130,140,-150,140,125,-135,-135,125,150,165,175,175,440,SBD,1
Mick King,M,,M_M6_R_BPU,,Raw,124.7,125,,,,,160,185,-195,185,,,,,185,B,1
Michael Phipps,M,,M_O_R_ABPU,Yes,Raw,64.4,67.5,100,110,120,120,90,95,-100,95,-150,,,,,SBD,DQ
Mo Proctor,F,,F_M2_R_ABPU,Yes,Raw,83,90,100,-110,-110,100,60,65,-70,65,120,130,137.5,137.5,302.5,SBD,1
Mohammed Kobir,M,,M_T2_CR_ABPU,Yes,Wraps,64,67.5,110,140,145,145,80,90,-95,90,-180,200,-225,200,435,SBD,1
Paul Beckford,M,,M_O_R_BPU,,Raw,176,140+,,,,,160,170,175,175,,,,,175,B,1
Paul Beckford,M,,M_O_R_BPU,,Raw,176,140+,,,,,,,,,200,215,227.5,227.5,227.5,D,1
Paul Morgan,M,,M_M1_R_ABPU,Yes,Raw,89.9,90,,,,,150,160,167.5,167.5,,,,,167.5,B,1
Rhianon Lovelace,F,,F_T3_R_BPU,,Raw,55.6,56,-100,100,-110,100,60,-65,-65,60,120,130,140,140,300,SBD,1
Richard Martin #1,M,,M_O_CR_BPU,,Wraps,90.7,100,200,220,230,230,-130,140,-150,140,227.5,250,260,260,630,SBD,1
Robert McStay,M,,M_O_CR_BPU,,Wraps,140.4,140+,250,260,275,275,190,205,-225,205,270,-285,295,295,775,SBD,1
Ryan Gregory #1,M,,M_O_R_BPU,,Raw,104.1,110,160,170,185,185,150,160,-165,160,200,,,200,545,SBD,1
Sam Ashfield,M,,M_O_R_ABPU,Yes,Raw,80.4,82.5,162.5,170,175,175,97.5,102.5,105,105,195,202.5,207.5,207.5,487.5,SBD,3
Sean Blackburn,M,,M_M2_R_BPU,,Raw,106.8,110,,,,,177.5,-185,,177.5,,,,,177.5,B,1
Shahid Jabar,M,,M_J_CR_ABPU,Yes,Wraps,82.3,82.5,150,170,180,180,85,-95,,85,200,220,235,235,500,SBD,1
Simon Williams #1,M,,M_J_CR_BPU,,Wraps,74.7,75,225,-235,245,245,140,147.5,152.5,152.5,-220,220,230,230,627.5,SBD,1
Terrence Dunne,M,,M_O_R_ABPU,Yes,Raw,123.1,125,160,165,167.5,167.5,110,115,117.5,117.5,210,-215,215,215,500,SBD,1
William Ashton,M,,M_M5_R_BPU,,Raw,80.8,82.5,90,100,110,110,70,80,90,90,150,170,-190,170,370,SBD,1
