Division,WeightClassKg,Place,Name,Team,BodyweightKg,Best3SquatKg,Best3BenchKg,Best3DeadliftKg,TotalKg,Equipment,Event,Sex,BirthDate
Girls,44.23,1,Danika Rickard,Midland Lee,44.18,90.72,47.63,99.79,238.14,Single-ply,SBD,F,
Girls,47.85,1,Maiah Rubio,Midland Lee,46.99,86.18,40.82,97.52,224.53,Single-ply,SBD,F,
Girls,47.85,DQ,Perla Rascon,Midland Lee,46.27,79.38,,,,Single-ply,SBD,F,
Girls,51.94,1,Ashley Gonzalez,Midland Lee,48.17,86.18,40.82,86.18,213.19,Single-ply,SBD,F,
Girls,51.94,2,Nadia Garcia,Odessa,51.26,70.31,47.63,92.99,210.92,Single-ply,SBD,F,
Girls,51.94,3,Madison Zamora,Midland,51.62,88.45,34.02,81.65,204.12,Single-ply,SBD,F,
Girls,51.94,4,Rebekah Dupre,San Angelo Central,48.44,74.84,36.29,83.91,195.04,Single-ply,SBD,F,
Girls,56.02,1,Katelyn Garcia,Odessa,55.79,124.74,79.38,127.01,331.12,Single-ply,SBD,F,
Girls,56.02,2,Sierra Jones,Odessa,54.25,88.45,54.43,108.86,251.74,Single-ply,SBD,F,
Girls,56.02,3,Alison Perez,Midland Lee,53.61,95.25,43.09,102.06,240.4,Single-ply,SBD,F,
Girls,56.02,4,Christine Martinez,San Angelo Central,55.16,86.18,34.02,104.33,224.53,Single-ply,SBD,F,
Girls,56.02,5,Abby Steger,Odessa,54.25,72.57,47.63,95.25,215.46,Single-ply,SBD,F,
Girls,56.02,DQ,Jaylen Dehoyos,San Angelo Central,54.79,68.04,,,,Single-ply,SBD,F,
Girls,60.1,1,Yulissa Lucio,Odessa,58.42,61.23,47.63,81.65,190.51,Single-ply,SBD,F,
Girls,60.1,2,Alexis Medina,Odessa,57.24,58.97,43.09,79.38,181.44,Single-ply,SBD,F,
Girls,67.36,1,Amber Steger,Odessa,67.36,102.06,72.57,113.4,288.03,Single-ply,SBD,F,
Girls,67.36,2,Ellesah Uresti,Midland Lee,65.68,106.59,52.16,124.74,283.5,Single-ply,SBD,F,
Girls,67.36,3,Mikayla Deller,Midland,60.78,79.38,34.02,86.18,199.58,Single-ply,SBD,F,
Girls,75.07,1,Abby Stevens,San Angelo Central,69.04,138.35,72.57,136.08,347,Single-ply,SBD,F,
Girls,75.07,2,Addison Jones,Midland Lee,67.59,79.38,45.36,104.33,229.06,Single-ply,SBD,F,
Girls,75.07,DQ,Samantha Schell,San Angelo Central,71.4,83.91,,,,Single-ply,SBD,F,
Girls,82.33,1,Kaia Minjarez,Odessa,77.38,113.4,74.84,99.79,288.03,Single-ply,SBD,F,
Girls,82.33,2,Celeste Estrada,Odessa,78.11,129.27,61.23,92.99,283.5,Single-ply,SBD,F,
Girls,82.33,3,Katherine Cook,Midland Lee,80.65,102.06,54.43,120.2,276.69,Single-ply,SBD,F,
Girls,82.33,4,Marisa Luna,San Angelo Central,75.66,104.33,34.02,104.33,242.67,Single-ply,SBD,F,
Girls,82.33,5,Jettah Woolf,Odessa,76.57,88.45,47.63,88.45,224.53,Single-ply,SBD,F,
Girls,82.33,6,Neely Smith,Midland,81.56,97.52,38.56,70.31,206.38,Single-ply,SBD,F,
Girls,90.04,1,Natali Sanchez,Midland,89.81,136.08,74.84,129.27,340.19,Single-ply,SBD,F,
Girls,90.04,2,Neleigh Pate,Midland Lee,82.46,92.99,56.7,106.59,256.28,Single-ply,SBD,F,
Girls,100.02,1,Nohemi Nave,Odessa,96.25,79.38,52.16,88.45,219.99,Single-ply,SBD,F,
Girls,117.71,1,Leslie Ramos,Midland Lee,104.69,149.69,68.04,138.35,356.07,Single-ply,SBD,F,
Girls,117.71,2,Joy Hernandez,Midland Lee,102.06,102.06,56.7,120.2,278.96,Single-ply,SBD,F,
Girls,,NS,Hannah Medina,Odessa,,,,,,Single-ply,SBD,F,
Girls,,NS,Daniela Valdez,San Angelo Central,,,,,,Single-ply,SBD,F,
